3 Using the dplyr package in R for data wrangling | Programming and analyzing data with R
…
selected_purposes <- c("car (new)", "radio/television", "furniture/equipment")

subset_1 <- data %>%
  select(age_years, duration_months, credit_amount, purpose, personal_status_sex, response) %>%
  filter(personal_status_sex == "male   : divorced/separated") %>%
  filter(age_years >= 18) %>%
  filter(purpose %in% selected_purposes) %>%
  arrange(desc(credit_amount))

Check out the subset:

subset_1

## # A tibble: 32 × 6
##    age_years duration_months credit_amount purpose    personal_status_… response
##        <dbl>           <dbl>         <dbl> <chr>      <chr>                <dbl>
##  1        45              14          8978 car (new)  male   : divorce…        1
##  2        55              24          6872 furniture… male   : divorce…        1
##  3        32              30          4583 furniture… male   : divorce…        0
##  4        40              18          4297 furniture… male   : divorce…        1
##  5        43              24          4057 furniture… male   : divorce…        1
##  6        37              24          3878 car (new)  male   : divorce…        0
##  7        35              18          3780 furniture… male   : divorce…        0
##  8        44              20          3485 car (new)  male   : divorce…        0
##  9        44               6          3384 furniture… male   : divorce…        1
## 10        26              24          3235 radio/tel… male   : divorce…        0
## # … with 22 more rows
…
