2 Working with Data Frames in R | Programming and analyzing data with R
…
An alternative for selecting a column of a data frame:

data["credit_amount"]

## # A tibble: 1,000 × 1
##    credit_amount
##            <dbl>
##  1          1169
##  2          5951
##  3          2096
##  4          7882
##  5          4870
##  6          9055
##  7          2835
##  8          6948
##  9          3059
## 10          5234
## # … with 990 more rows
…
Selecting columns

data[,4]

## # A tibble: 1,000 × 1
##    purpose            
##    <chr>              
##  1 radio/television   
##  2 radio/television   
##  3 education          
##  4 furniture/equipment
##  5 car (new)          
##  6 education          
##  7 furniture/equipment
##  8 car (used)         
##  9 radio/television   
## 10 car (new)          
## # … with 990 more rows
…
## # A tibble: 4 × 4
##   duration_months purpose             savings                     installment_rate
##             <dbl> <chr>               <chr>                                  <dbl>
## 1               6 radio/television    unknown/ no savings account                4
## 2              12 education           ... <  51 euro                             2
## 3              24 car (new)           ... <  51 euro                             3
## 4              24 furniture/equipment 255 euro <= ... < 511 euro                 3

2.3.2 Filtering data frames

Loans with a minimal duration of 20 (months)

data[data$duration_months >= 20, ]

## # A tibble: 454 × 21
##    checking_account duration_months credit_history purpose credit_amount savings
##    <chr>                      <dbl> <chr>          <chr>           <dbl> <chr>  
##  1 0 <= ... <  102…              48 existing cred… radio/…          5951 ... < …
##  2 ... <  0 euro                 42 existing cred… furnit…          7882 ... < …
##  3 ... <  0 euro                 24 delay in payi… car (n…          4870 ... < …
##  4 No checking acc…              36 existing cred… educat…          9055 unknow…
##  5 No checking acc…              24 existing cred… furnit…          2835 255 eu…
##  6 0 <= ... <  102…              36 existing cred… car (u…          6948 ... < …
##  7 0 <= ... <  102…              30 critical acco… car (n…          5234 ... < …
##  8 ... <  0 euro                 48 existing cred… busine…          4308 ... < …
##  9 ... <  0 euro                 24 critical acco… car (n…          1199 ... < …
## 10 ... <  0 euro                 24 existing cred… radio/…          1282 51 <= …
## # … with 444 more rows, and 15 more variables: present_employment_since <chr>,
## #   installment_rate <dbl>, personal_status_sex <chr>, other_deptors <chr>,
## #   present_residence <dbl>, property <chr>, age_years <dbl>,
## #   other_installment_plans <chr>, housing <chr>, existing_credits <dbl>,
## #   job <chr>, people_liable_maintenance <dbl>, telephone <chr>,
## #   foreign_worker <chr>, response <dbl>
Filter for single males

# first, checkout what the values look like that we would like to filter
unique(data$personal_status_sex)

## [1] "male   : single"                     "female : divorced/separated/married"
## [3] "male   : divorced/separated"         "male   : married/widowed"

single_males <- data[data$personal_status_sex == "male   : single", ]

Displaying the data

single_males 

## # A tibble: 548 × 21
##    checking_account duration_months credit_history purpose credit_amount savings
##    <chr>                      <dbl> <chr>          <chr>           <dbl> <chr>  
##  1 ... <  0 euro                  6 critical acco… radio/…          1169 unknow…
##  2 No checking acc…              12 critical acco… educat…          2096 ... < …
##  3 ... <  0 euro                 42 existing cred… furnit…          7882 ... < …
##  4 ... <  0 euro                 24 delay in payi… car (n…          4870 ... < …
##  5 No checking acc…              36 existing cred… educat…          9055 unknow…
##  6 No checking acc…              24 existing cred… furnit…          2835 255 eu…
##  7 0 <= ... <  102…              36 existing cred… car (u…          6948 ... < …
##  8 ... <  0 euro                 24 critical acco… car (n…          1199 ... < …
##  9 No checking acc…              24 critical acco… radio/…          2424 unknow…
## 10 ... <  0 euro                 30 no credits ta… busine…          8072 unknow…
## # … with 538 more rows, and 15 more variables: present_employment_since <chr>,
## #   installment_rate <dbl>, personal_status_sex <chr>, other_deptors <chr>,
## #   present_residence <dbl>, property <chr>, age_years <dbl>,
## #   other_installment_plans <chr>, housing <chr>, existing_credits <dbl>,
## #   job <chr>, people_liable_maintenance <dbl>, telephone <chr>,
## #   foreign_worker <chr>, response <dbl>

Apply multiple filters

data[data$personal_status_sex == "male   : single" & data$age_years > 60 , ]

## # A tibble: 30 × 21
##    checking_account duration_months credit_history purpose credit_amount savings
##    <chr>                      <dbl> <chr>          <chr>           <dbl> <chr>  
##  1 ... <  0 euro                  6 critical acco… radio/…          1169 unknow…
##  2 ... <  0 euro                 60 delay in payi… busine…          6836 ... < …
##  3 0 <= ... <  102…              36 no credits ta… busine…          1953 ... < …
##  4 ... <  0 euro                 12 critical acco… car (u…          1526 ... < …
##  5 >= 102 euro                   10 critical acco… car (n…           781 ... < …
##  6 0 <= ... <  102…              12 existing cred… radio/…           766 255 eu…
##  7 0 <= ... <  102…              10 existing cred… car (n…          7308 ... < …
##  8 ... <  0 euro                 21 critical acco… car (n…           571 ... < …
##  9 0 <= ... <  102…              16 critical acco… car (n…          1175 ... < …
## 10 >= 102 euro                   30 delay in payi… busine…          1908 ... < …
## # … with 20 more rows, and 15 more variables: present_employment_since <chr>,
## #   installment_rate <dbl>, personal_status_sex <chr>, other_deptors <chr>,
## #   present_residence <dbl>, property <chr>, age_years <dbl>,
## #   other_installment_plans <chr>, housing <chr>, existing_credits <dbl>,
## #   job <chr>, people_liable_maintenance <dbl>, telephone <chr>,
## #   foreign_worker <chr>, response <dbl>
…
